jsonFlickrApi({
    "photos": {
        "page": 1,
        "pages": 29555,
        "perpage": 10,
        "total": "295550",
        "photo": [{
                "id": "28246102939",
                "owner": "154310511@N02",
                "secret": "44622e62a7",
                "server": "4630",
                "farm": 5,
                "title": "Love Quotes : Tip #4 - 10 Tips for Young Married Couples - TriciaGoyer.com",
                "ispublic": 1,
                "isfriend": 0,
                "isfamily": 0
            },
            {
                "id": "28246086699",
                "owner": "53754884@N03",
                "secret": "6d6fc4f56b",
                "server": "4614",
                "farm": 5,
                "title": "Diamond select harley quinn 25th anniversary figure",
                "ispublic": 1,
                "isfriend": 0,
                "isfamily": 0
            },
            {
                "id": "39127338835",
                "owner": "153866415@N06",
                "secret": "8544314d62",
                "server": "4750",
                "farm": 5,
                "title": "Success Quotes : Believe you deserve it and the universe will serve it. #regram June Ambrose #the\u2026",
                "ispublic": 1,
                "isfriend": 0,
                "isfamily": 0
            },
            {
                "id": "39993612312",
                "owner": "153866415@N06",
                "secret": "cba3ed4e18",
                "server": "4749",
                "farm": 5,
                "title": "Inspirational Quotes about Work : inspirational quotes about life, inspirational quotes about strength, quotes abo\u2026",
                "ispublic": 1,
                "isfriend": 0,
                "isfamily": 0
            },
            {
                "id": "25154493817",
                "owner": "138117041@N03",
                "secret": "0b9a66c100",
                "server": "4747",
                "farm": 5,
                "title": "Love quote and saying : happy birthday to my love",
                "ispublic": 1,
                "isfriend": 0,
                "isfamily": 0
            },
            {
                "id": "39127306405",
                "owner": "157426759@N08",
                "secret": "b61687301d",
                "server": "4667",
                "farm": 5,
                "title": "Love Quotes For Him & For Her :3 Reasons Why Men Choose Other Women Over You (And What You Can Do About It) com...",
                "ispublic": 1,
                "isfriend": 0,
                "isfamily": 0
            },
            {
                "id": "40025047351",
                "owner": "155233060@N02",
                "secret": "73ffcb29c4",
                "server": "4609",
                "farm": 5,
                "title": "IMG_3254",
                "ispublic": 1,
                "isfriend": 0,
                "isfamily": 0
            },
            {
                "id": "26152227458",
                "owner": "151908744@N08",
                "secret": "83ee5b0dc7",
                "server": "4613",
                "farm": 5,
                "title": "Breaking up and Moving on Quotes : I didn't necessarily grow up in the 90's but I was forced to eat these! \u2026",
                "ispublic": 1,
                "isfriend": 0,
                "isfamily": 0
            },
            {
                "id": "39315440234",
                "owner": "151908744@N08",
                "secret": "4ac9529968",
                "server": "4606",
                "farm": 5,
                "title": "Inspirational And Motivational Quotes : 33 Fantastic Inspirational Quotes #motivation #motivationalquotes #wisdom #grea\u2026",
                "ispublic": 1,
                "isfriend": 0,
                "isfamily": 0
            },
            {
                "id": "39993586362",
                "owner": "151908744@N08",
                "secret": "3ebe5c46ee",
                "server": "4667",
                "farm": 5,
                "title": "Famous Celebrity Quotes : The irony is that it's the epiphany that your parents are very real humans t\u2026",
                "ispublic": 1,
                "isfriend": 0,
                "isfamily": 0
            }
        ]
    },
    "stat": "ok"
})